<svg width="114" height="33" viewBox="0 0 114 33" fill="none" xmlns="http://www.w3.org/2000/svg">
  <path d="M105.725 7.21655C105.86 7.36162 105.961 7.50669 106.096 7.68803C106.197 7.8331 106.298 7.94191 106.399 8.08698C106.534 8.23205 106.669 8.41339 106.77 8.55846C106.871 8.70353 107.006 8.8486 107.107 8.99367C107.242 9.17501 107.377 9.35635 107.511 9.53769C107.646 9.71902 107.747 9.86409 107.882 10.0454C108.017 10.1905 108.118 10.3356 108.253 10.4806C108.354 10.6257 108.455 10.7345 108.556 10.8796C108.691 11.0609 108.86 11.2423 108.995 11.4236C109.129 11.5687 109.231 11.75 109.365 11.8951C109.467 12.0402 109.601 12.149 109.703 12.294C109.77 12.3666 109.804 12.4391 109.871 12.5116C109.939 12.6204 110.04 12.693 110.107 12.8018C110.174 12.8743 110.242 12.9831 110.309 13.0557C110.377 13.1282 110.478 13.237 110.512 13.3458C110.613 13.4909 110.748 13.5997 110.849 13.781C110.916 13.8898 111.017 13.9623 111.085 14.0711C111.22 14.2525 111.388 14.4701 111.523 14.6514C111.59 14.7602 111.691 14.8328 111.759 14.9416C111.86 15.0866 111.961 15.1954 112.062 15.3405C112.13 15.4493 112.231 15.5219 112.298 15.6307C112.399 15.7757 112.501 15.9208 112.602 16.0659C112.703 16.2109 112.838 16.356 112.972 16.5011C113.074 16.6099 113.141 16.7187 113.208 16.8275C113.31 16.9363 113.276 17.0451 113.175 17.1539C113.04 17.3352 112.905 17.5166 112.737 17.6979C112.635 17.843 112.501 17.9881 112.399 18.0969C112.265 18.2419 112.163 18.4233 112.029 18.5683C111.927 18.7134 111.793 18.8585 111.691 19.0036C111.557 19.1486 111.456 19.33 111.354 19.475C111.253 19.6201 111.118 19.7652 111.017 19.9102C110.95 20.019 110.849 20.1279 110.781 20.2367C110.68 20.3817 110.579 20.4905 110.478 20.6356C110.377 20.7444 110.309 20.8532 110.208 20.962C110.073 21.1433 109.905 21.3247 109.77 21.506C109.669 21.6511 109.534 21.7962 109.433 21.9412C109.298 22.0863 109.163 22.2676 109.062 22.4127C108.995 22.5215 108.893 22.6303 108.826 22.7391C108.725 22.8842 108.59 23.0293 108.489 23.1743C108.388 23.3194 108.253 23.4645 108.152 23.6096C107.983 23.7909 107.848 24.0085 107.68 24.1898C107.511 24.4074 107.343 24.625 107.174 24.8427C107.039 24.9877 106.905 25.1691 106.803 25.3141C106.702 25.4592 106.601 25.6043 106.466 25.7493C106.365 25.8944 106.23 26.0395 106.129 26.1846C106.028 26.3296 105.893 26.4747 105.792 26.6198C105.792 26.6198 105.758 26.6198 105.725 26.656C105.725 20.2004 105.725 13.7447 105.725 7.28909C105.691 7.21655 105.725 7.21655 105.725 7.21655Z" fill="#7FA9B3"/>
  <path fill-rule="evenodd" clip-rule="evenodd" d="M3.4201 7.85942H0C0 16.024 0 24.2221 0.0670609 32.4202H3.62129V23.8206C3.72292 23.9423 3.83687 24.0394 3.94821 24.1343C4.02053 24.1959 4.09175 24.2566 4.15777 24.3225C4.66073 24.791 5.26428 25.159 5.90135 25.3933C6.80668 25.7279 7.712 25.7279 8.65085 25.661C9.2544 25.6275 9.85794 25.5271 10.4615 25.3598C11.0986 25.1925 11.6686 24.9248 12.138 24.4898C12.9092 23.7871 13.4122 22.9171 13.7475 21.9467C14.0492 21.0433 14.2504 20.1398 14.3175 19.1694C14.3846 18.5002 14.4516 17.831 14.4516 17.1617C14.4516 16.4256 14.4181 15.656 14.3846 14.9198C14.351 14.4514 14.284 13.9829 14.2169 13.5145L14.2169 13.5144C14.1163 12.9121 13.9822 12.3098 13.8145 11.7075C13.5798 10.9044 13.211 10.2017 12.6745 9.56596C12.2386 9.03058 11.7356 8.62904 11.1321 8.36135C10.6627 8.12712 10.1597 7.99327 9.65676 7.85942C8.8185 7.65865 7.98024 7.59173 7.14198 7.69212C6.5049 7.75904 5.86782 7.95981 5.29781 8.2275C4.72779 8.52865 4.1913 8.89673 3.72188 9.36519C3.62129 9.43212 3.52069 9.5325 3.4201 9.63288V7.85942ZM10.5956 14.3175C10.7633 15.0537 10.8303 15.8567 10.7633 16.6263C10.7633 16.7424 10.7653 16.8606 10.7674 16.9798C10.7737 17.3415 10.7802 17.7128 10.7297 18.0652C10.6291 19.069 10.495 20.1063 9.99207 21.0098C9.55617 21.8129 8.91909 22.3148 8.01377 22.4487C7.57788 22.5156 7.14198 22.549 6.70609 22.5156C5.90135 22.4487 5.19722 22.114 4.69426 21.4448C4.1913 20.809 3.92306 20.0729 3.75541 19.3033C3.68835 18.8683 3.62129 18.3998 3.58776 17.9648C3.57937 17.7975 3.56889 17.6302 3.55842 17.4629C3.52698 16.961 3.49555 16.459 3.52069 15.9571C3.55422 14.786 3.72188 13.6148 4.32542 12.544C4.82838 11.6406 5.56605 11.0717 6.60549 10.9044C7.14198 10.8375 7.67847 10.804 8.21495 11.0048C8.91909 11.239 9.45558 11.7075 9.85794 12.3433C10.2268 12.9456 10.4615 13.6148 10.5956 14.3175Z" fill="#183B56"/>
  <path fill-rule="evenodd" clip-rule="evenodd" d="M27.4409 24.5249V26.0877H27.4411C28.628 26.0877 29.7809 26.0877 30.9677 26.1224V25.8793V13.307C30.9677 12.6471 30.866 11.9873 30.6286 11.3274C30.1878 10.1118 29.3739 9.20885 28.2548 8.58371C27.5766 8.20168 26.8645 7.9933 26.0845 7.85438C25.3045 7.75019 24.5246 7.646 23.7446 7.646C23.4055 7.646 23.0664 7.646 22.7273 7.68073C22.4221 7.68073 22.1508 7.68073 21.8456 7.75019C21.0995 7.88911 20.3535 8.06276 19.6752 8.37533C18.7257 8.79209 17.9119 9.34777 17.3014 10.1813C17.2336 10.2855 17.2675 10.3202 17.3354 10.3897C17.471 10.4939 17.6066 10.6328 17.7423 10.7717C17.9458 10.9801 18.1577 11.1798 18.3697 11.3795C18.5816 11.5792 18.7935 11.7789 18.997 11.9873C19.0818 12.0567 19.1581 12.1349 19.2344 12.213C19.3107 12.2912 19.387 12.3693 19.4718 12.4388C19.5396 12.5082 19.6074 12.543 19.7092 12.4388C19.8222 12.2998 19.9352 12.1918 20.0483 12.0837C20.1048 12.0297 20.1613 11.9757 20.2178 11.9178C20.6248 11.5358 21.0995 11.2579 21.6082 11.0843C22.3203 10.8064 23.0664 10.7023 23.8463 10.8064C24.4228 10.8759 24.9993 10.9454 25.5419 11.1537C26.3558 11.4663 26.9323 11.9873 27.1697 12.8555C27.2668 13.1871 27.3021 13.5503 27.3346 13.8848C27.3361 13.9006 27.3377 13.9164 27.3392 13.9322C27.3616 14.2538 27.3544 14.5755 27.3469 14.9072C27.3431 15.0769 27.3392 15.2493 27.3392 15.4256H27.2375C25.5758 15.4256 23.8803 15.4256 22.1847 15.4603C21.8456 15.4603 21.5065 15.495 21.1674 15.5297L21.1673 15.5297C20.2856 15.6339 19.4718 15.9465 18.7257 16.4327C17.8101 17.0231 17.1319 17.8219 16.7928 18.8986C16.5554 19.6279 16.4537 20.392 16.5554 21.156C16.5893 21.3471 16.6147 21.5468 16.6402 21.7464C16.6656 21.9461 16.691 22.1458 16.725 22.3369C16.8945 23.1009 17.1997 23.7955 17.7084 24.3859C18.1831 24.9764 18.7935 25.3931 19.4718 25.7057C20.2856 26.053 21.0995 26.2266 21.9473 26.2266C22.5577 26.2266 23.1681 26.1919 23.7785 26.1224C24.2194 26.0877 24.6602 26.0183 25.1011 25.9141C25.6775 25.7752 26.1862 25.4279 26.6949 25.0806L26.6949 25.0805C26.9323 24.9069 27.1697 24.7332 27.4409 24.5249ZM27.1697 18.0303H27.3731V19.8363C27.3392 20.2878 27.3053 20.7393 27.2036 21.1908C27.1018 21.6423 26.7966 21.9896 26.4575 22.3021C25.9488 22.7536 25.3724 22.9967 24.728 23.1009C24.2872 23.1704 23.8463 23.2398 23.4055 23.1704C23.2359 23.153 23.0664 23.1443 22.8968 23.1357C22.7273 23.127 22.5577 23.1183 22.3882 23.1009C21.7777 23.0315 21.1673 22.8578 20.6926 22.4063C20.4213 22.1285 20.2178 21.7812 20.15 21.3644C20.0483 20.8435 20.0144 20.3225 20.1839 19.8016C20.3874 19.2111 20.7604 18.8291 21.2691 18.5165C21.8456 18.1692 22.4899 18.0303 23.1681 18.0303H27.1697Z" fill="#183B56"/>
  <path fill-rule="evenodd" clip-rule="evenodd" d="M88.3439 19.704C88.2062 19.1847 88.1373 18.6654 88.0685 18.1114C92.0276 18.1114 95.918 18.1114 99.9116 18.0768C99.9143 18.0473 99.9169 18.018 99.9196 17.989C99.9511 17.6421 99.9805 17.3202 99.9805 16.9689C99.9805 16.843 99.9712 16.7265 99.9622 16.6145C99.954 16.5108 99.946 16.4109 99.946 16.311C99.946 15.9302 99.9116 15.5493 99.8772 15.1685C99.8083 14.6492 99.7395 14.1645 99.6362 13.6451C99.3952 12.5026 98.982 11.4293 98.2935 10.4598C97.8804 9.83665 97.3639 9.31731 96.7787 8.90184C95.6081 8.10552 94.2999 7.72468 92.8883 7.65543C92.4236 7.62947 91.9588 7.66192 91.494 7.69438C91.3391 7.7052 91.1842 7.71602 91.0292 7.72468C90.4095 7.7593 89.8243 7.93241 89.239 8.14015C88.2062 8.52099 87.3455 9.1442 86.6225 9.97514C86.2094 10.4252 85.8651 10.9446 85.6241 11.4985C85.3487 12.0871 85.1421 12.6757 84.97 13.2643C84.6945 14.1298 84.5913 14.9954 84.5224 15.8956C84.488 16.4149 84.488 16.8996 84.5224 17.419C84.5224 17.7883 84.553 18.1576 84.5836 18.5269C84.5989 18.7115 84.6142 18.8962 84.6257 19.0808C84.6601 19.7387 84.8323 20.3965 85.0388 21.0197C85.3487 22.093 85.8307 23.0278 86.5536 23.8587C87.1733 24.5858 87.9307 25.1398 88.8259 25.5552C89.7898 25.9707 90.8227 26.1784 91.8555 26.2131C92.5785 26.2477 93.267 26.2131 93.99 26.1438C94.4376 26.1092 94.8851 26.0399 95.2983 25.9361C96.1245 25.7283 96.9164 25.4514 97.6394 25.0013C98.2591 24.6204 98.8443 24.1357 99.3263 23.5471C99.3952 23.4779 99.3952 23.4086 99.3263 23.3394C99.1542 23.1663 98.982 23.0018 98.8099 22.8374C98.6378 22.6729 98.4656 22.5085 98.2935 22.3353L97.1574 21.1928C97.0025 21.314 96.8561 21.4352 96.7098 21.5563C96.5635 21.6775 96.4172 21.7987 96.2623 21.9199C95.2983 22.6816 94.1622 23.0624 92.9228 23.097C92.4064 23.1317 91.8555 23.0278 91.3391 22.9239C90.7538 22.7854 90.203 22.5431 89.7554 22.1622C88.998 21.5044 88.5849 20.6388 88.3439 19.704ZM96.1934 15.3762H88.1373C88.1717 15.0646 88.1717 14.753 88.1717 14.4414C88.1888 14.3728 88.2059 14.3033 88.2231 14.2331C88.3101 13.8782 88.4011 13.5073 88.516 13.1604C88.9292 12.0525 89.6521 11.2215 90.7882 10.8753C91.9244 10.5291 93.0605 10.5983 94.1277 11.1869C94.8851 11.6024 95.3671 12.2602 95.677 13.0219C95.8491 13.472 95.9868 13.9567 96.0901 14.4414C96.136 14.6492 96.1513 14.8569 96.1666 15.0646C96.1743 15.1685 96.1819 15.2724 96.1934 15.3762Z" fill="#183B56"/>
  <path d="M44.4827 7.646C45.804 7.646 47.1601 7.646 48.5161 7.646C48.5161 7.71364 48.5161 7.74747 48.4814 7.81512C48.1336 8.72836 47.7859 9.67544 47.4382 10.5887C47.1601 11.2652 46.9167 11.9755 46.6385 12.6519C46.2213 13.7681 45.7692 14.8843 45.352 16.0343C45.039 16.8461 44.7261 17.6579 44.4132 18.4697C43.9959 19.5859 43.5439 20.7359 43.1267 21.8521C42.8137 22.6977 42.5008 23.5433 42.1531 24.3889C41.7706 25.4036 41.3881 26.4183 40.9709 27.433C40.6232 28.3125 40.3102 29.1919 39.893 30.0375C39.3366 31.1875 38.3631 31.9654 37.0765 32.2699C36.7288 32.3375 36.3811 32.3713 36.0334 32.4052C35.5466 32.439 35.0598 32.4052 34.573 32.4052C34.0167 32.4052 33.4951 32.4052 32.904 32.4052C32.904 31.3566 32.904 30.2742 32.904 29.1581C33.0779 29.1581 33.217 29.1581 33.3908 29.1581C33.9819 29.1581 34.5383 29.1581 35.1294 29.1581C36.0682 29.1242 36.9027 28.6169 37.2156 27.7374C37.5981 26.7566 37.9458 25.7418 38.2935 24.7271C38.3631 24.5242 38.224 24.3889 38.1892 24.2198C37.911 23.4418 37.6329 22.6977 37.3547 21.9535C36.9722 20.905 36.555 19.8565 36.1725 18.8079C35.6857 17.5564 35.2337 16.3049 34.7469 15.0535C34.2949 13.8358 33.8081 12.6181 33.3561 11.4005C32.9388 10.2504 32.4868 9.10043 32.0695 7.95041C32.0348 7.91659 32.0348 7.84894 32 7.78129C33.2517 7.78129 34.5383 7.78129 35.79 7.78129C35.8943 7.78129 35.9291 7.84894 35.9291 7.91659C36.1377 8.52542 36.3463 9.13425 36.555 9.74308C37.007 10.9946 37.4242 12.2461 37.8763 13.4975C38.2935 14.6814 38.7108 15.8652 39.128 17.0829C39.4757 18.0638 39.8234 19.0447 40.1711 20.0256C40.1711 20.0594 40.2059 20.0932 40.2407 20.127C41.7011 15.899 43.0919 11.7725 44.4827 7.646Z" fill="#183B56"/>
  <path d="M78.7515 25.1944C78.7515 25.1282 78.7515 25.0289 78.7515 24.9628C78.7515 21.3893 78.7515 17.8489 78.7515 14.2755C78.7515 13.3821 78.4814 12.5549 77.8736 11.827C77.3671 11.1983 76.6581 10.8674 75.8815 10.8013C75.51 10.7682 75.1386 10.7351 74.7672 10.7682C73.788 10.8674 72.9439 11.2314 72.3699 12.0586C71.9647 12.6211 71.7621 13.2497 71.6608 13.9446C71.627 14.1762 71.627 14.4078 71.627 14.6394C71.627 18.0805 71.627 21.4886 71.627 24.9297C71.627 24.9959 71.627 25.062 71.627 25.1613C70.4115 25.1613 69.1959 25.1613 67.9803 25.1613C67.9803 19.371 67.9803 13.5806 67.9803 7.79028C69.1284 7.79028 70.2764 7.79028 71.4582 7.79028C71.4582 8.35277 71.4582 8.91526 71.4582 9.54393C71.6945 9.3454 71.8971 9.14687 72.1335 8.98144C72.9439 8.38586 73.8218 7.98881 74.8347 7.79028C75.51 7.65793 76.1854 7.62484 76.8607 7.65793C77.6373 7.69102 78.4139 7.85646 79.1229 8.18733C79.832 8.51821 80.4398 8.98144 80.98 9.54393C81.5203 10.1726 81.9255 10.9005 82.1281 11.7277C82.2969 12.3895 82.3644 13.0512 82.3644 13.713C82.3644 14.871 82.3982 16.0291 82.3982 17.1872C82.3982 19.3048 82.432 21.4224 82.432 23.54C82.432 24.0694 82.432 24.6319 82.432 25.1944C81.1489 25.1944 79.9671 25.1944 78.7515 25.1944Z" fill="#183B56"/>
  <path d="M50.432 0.420166C51.6931 0.420166 52.9201 0.420166 54.1812 0.420166C54.1812 0.487538 54.1812 0.55491 54.1812 0.622282C54.1812 7.19106 54.1812 13.7261 54.1812 20.2612C54.1812 20.8002 54.3176 21.3392 54.7266 21.7434C54.9652 21.9792 55.2719 22.114 55.6128 22.114C56.1581 22.114 56.6694 22.1476 57.2147 22.1476C57.3511 22.1476 57.5215 22.1476 57.6578 22.114C57.6578 23.1245 57.6578 24.1351 57.6578 25.1794C57.5556 25.1794 57.5215 25.1794 57.4533 25.1794C56.5671 25.1794 55.715 25.2131 54.8288 25.1794C53.8404 25.1457 52.9542 24.8425 52.2044 24.2362C51.2841 23.5288 50.7728 22.5519 50.5683 21.4402C50.4661 20.9013 50.432 20.3286 50.432 19.7896C50.432 13.3893 50.432 7.02263 50.432 0.622282C50.432 0.588596 50.432 0.521224 50.432 0.420166Z" fill="#183B56"/>
  <path d="M60.7546 7.646C61.9665 7.646 63.1109 7.646 64.2891 7.646C64.2891 13.4955 64.2891 19.3449 64.2891 25.1944C63.1109 25.1944 61.9328 25.1944 60.7546 25.1944C60.7546 19.3449 60.7546 13.4955 60.7546 7.646Z" fill="#183B56"/>
  <path d="M64.2891 4.5492C63.1109 4.5492 61.9328 4.5492 60.7546 4.5492C60.7546 3.18548 60.7546 1.82176 60.7546 0.420166C61.9328 0.420166 63.1109 0.420166 64.2891 0.420166C64.2891 1.78388 64.2891 3.1476 64.2891 4.5492Z" fill="#183B56"/>
</svg>
