<svg width="1440" height="986" viewBox="0 0 1440 986" fill="none" xmlns="http://www.w3.org/2000/svg">
<path opacity="0.796642" fill-rule="evenodd" clip-rule="evenodd" d="M0.0203857 201.224C0.0203857 90.6794 89.6996 1.10025 200.244 1.22368L1455.69 2.62544V790.075C1455.69 876.74 1386.69 947.65 1300.06 950.016L0.0203857 985.512V201.224Z" fill="url(#paint0_linear)"/>
<mask id="mask0" mask-type="alpha" maskUnits="userSpaceOnUse" x="0" y="1" width="1456" height="985">
<path fill-rule="evenodd" clip-rule="evenodd" d="M0.0203857 201.224C0.0203857 90.6794 89.6996 1.10025 200.244 1.22368L1455.69 2.62544V790.075C1455.69 876.74 1386.69 947.65 1300.06 950.016L0.0203857 985.512V201.224Z" fill="white"/>
</mask>
<g mask="url(#mask0)">
<path fill-rule="evenodd" clip-rule="evenodd" d="M0.0203857 474L0.0203857 985.796L512.02 986L0.0203857 474Z" fill="url(#paint1_linear)"/>
</g>
<path fill-rule="evenodd" clip-rule="evenodd" d="M942.876 0.929077H1454.67L1454.88 512.929L942.876 0.929077Z" fill="url(#paint2_linear)"/>
<path fill-rule="evenodd" clip-rule="evenodd" d="M1206.35 175.216C1205.24 176.364 1205.26 178.178 1206.39 179.301L1212.61 185.462L1188.17 287.625L1263.04 361.771L1361.92 333.446L1370.06 341.521C1371.05 342.501 1372.64 342.542 1373.68 341.614C1374.8 340.618 1374.84 338.904 1373.79 337.85L1210.58 175.175C1209.41 174.008 1207.5 174.027 1206.35 175.216Z" fill="url(#paint3_linear)"/>
<defs>
<linearGradient id="paint0_linear" x1="-422.026" y1="895.263" x2="541.462" y2="1919.15" gradientUnits="userSpaceOnUse">
<stop stop-color="#E9F8FF"/>
<stop offset="1" stop-color="#F8FDFF"/>
</linearGradient>
<linearGradient id="paint1_linear" x1="46.9549" y1="1134.45" x2="-295.019" y2="658.64" gradientUnits="userSpaceOnUse">
<stop stop-color="#E9F8FF"/>
<stop offset="1" stop-color="#F8FDFF"/>
</linearGradient>
<linearGradient id="paint2_linear" x1="1603.32" y1="47.8636" x2="1127.52" y2="-294.11" gradientUnits="userSpaceOnUse">
<stop stop-color="#E9F8FF"/>
<stop offset="1" stop-color="#F8FDFF"/>
</linearGradient>
<linearGradient id="paint3_linear" x1="1094.99" y1="268.041" x2="1282.44" y2="454.413" gradientUnits="userSpaceOnUse">
<stop stop-color="#BBD6D9"/>
<stop offset="1" stop-color="#507785"/>
</linearGradient>
</defs>
</svg>
