<svg width="1440" height="1123" viewBox="0 0 1440 1123" fill="none" xmlns="http://www.w3.org/2000/svg">
<path opacity="0.796642" fill-rule="evenodd" clip-rule="evenodd" d="M-1.76489 2.42436L1456.7 0V925.59C1456.7 1012.19 1387.8 1083.07 1301.24 1085.53L-1.76489 1122.52V2.42436Z" fill="url(#paint0_linear)"/>
<mask id="mask0" mask-type="alpha" maskUnits="userSpaceOnUse" x="-2" y="0" width="1459" height="1123">
<path fill-rule="evenodd" clip-rule="evenodd" d="M-1.76489 2.42436L1456.7 0V925.59C1456.7 1012.19 1387.8 1083.07 1301.24 1085.53L-1.76489 1122.52V2.42436Z" fill="white"/>
</mask>
<g mask="url(#mask0)">
<path fill-rule="evenodd" clip-rule="evenodd" d="M-2.21082 611L-2.21082 1122.8L509.789 1123L-2.21082 611Z" fill="url(#paint1_linear)"/>
</g>
<defs>
<linearGradient id="paint0_linear" x1="1525.25" y1="354.126" x2="266.438" y2="-132.514" gradientUnits="userSpaceOnUse">
<stop stop-color="#E6F8FF"/>
<stop offset="1" stop-color="#F8FBFF"/>
</linearGradient>
<linearGradient id="paint1_linear" x1="44.7237" y1="1271.45" x2="-297.25" y2="795.64" gradientUnits="userSpaceOnUse">
<stop stop-color="#DEF3FC"/>
<stop offset="1" stop-color="#F2FBFF" stop-opacity="0.132594"/>
</linearGradient>
</defs>
</svg>
