<svg width="41" height="40" viewBox="0 0 41 40" fill="none" xmlns="http://www.w3.org/2000/svg">
<g opacity="0.2">
<rect width="40.315" height="40" rx="8" stroke="#AEC6A4" stroke-dasharray="1"/>
</g>
<path fill-rule="evenodd" clip-rule="evenodd" d="M21.4088 21.6844C22.0231 20.4209 21.457 19.3798 19.893 18.735L17.302 17.7222C16.4626 17.3941 15.5008 17.5293 14.7981 18.0742L12.4153 19.922L12.346 20.58L12.2344 25.961V26.8961H15.1173L20.997 28.4778C21.7387 28.6773 22.5363 28.5368 23.1528 28.0981C27.0269 25.3412 29.6154 23.4796 30.0075 23.1345C30.9578 22.2979 31.3319 21.3678 30.6548 20.4509C30.1075 19.7098 29.1844 19.6307 28.0404 20.1211L22.4761 22.8003L20.9115 22.3293C21.1133 22.1646 21.2796 21.9501 21.4088 21.6844Z" fill="#AEC6A4"/>
<path opacity="0.3" fill-rule="evenodd" clip-rule="evenodd" d="M26.7561 11.9361H25.5679V11.7018C25.5679 11.3143 25.2363 11 24.8272 11C24.418 11 24.0864 11.3143 24.0864 11.7018V11.9361H23.8533C22.8987 11.9361 22.1249 12.6695 22.1249 13.574V14.0427C22.1249 14.9473 22.8987 15.6806 23.8533 15.6806H25.8148C25.9511 15.6806 26.0617 15.7855 26.0617 15.9149V16.3823C26.0617 16.5117 25.9511 16.6165 25.8148 16.6165H23.5484C23.4387 16.3703 23.1852 16.1963 22.8882 16.1878C22.4792 16.176 22.1377 16.4806 22.1252 16.8679L22.1115 17.297C22.0988 17.6927 22.4339 18.0202 22.8519 18.0202H24.0864V18.2462C24.0864 18.6338 24.418 18.9481 24.8272 18.9481C25.2363 18.9481 25.5679 18.6338 25.5679 18.2462V18.0202H25.8148C26.7694 18.0202 27.5432 17.2868 27.5432 16.3823V15.9149C27.5432 15.0104 26.7694 14.277 25.8148 14.277H23.8533C23.717 14.277 23.6064 14.1722 23.6064 14.0427V13.574C23.6064 13.4445 23.717 13.3397 23.8533 13.3397H26.1124C26.2411 13.5536 26.4837 13.6941 26.7561 13.6941C27.1653 13.6941 27.4969 13.3798 27.4969 12.9922V12.6379C27.4969 12.2504 27.1653 11.9361 26.7561 11.9361ZM11.7407 18.7143H11.9877V27.5974H11.7407C11.3316 27.5974 11 27.9114 11 28.2987C11 28.686 11.3316 29 11.7407 29H12.7284C13.1375 29 13.4691 28.686 13.4691 28.2987V18.013C13.4691 17.6257 13.1375 17.3117 12.7284 17.3117H11.7407C11.3316 17.3117 11 17.6257 11 18.013C11 18.4003 11.3316 18.7143 11.7407 18.7143Z" fill="#AEC6A4"/>
</svg>
